Bayesian Approaches | Mixed Models with R
…
Fixed effects:
            Estimate Std. Error t value
(Intercept) 2.599214   0.018357  141.59
occasion    0.106314   0.005885   18.07

Aside from additional diagnostic information, the Bayesian results are essentially the same, but now we can continue to explore the model. The brms package tries to use the same function names as lme4 where possible, so ranef, fixef, VarCorr, etc. are still in play. However, you can still use my functions for standard models, which will return tidy data frames.

# examine random effects with the usual functions, not too tidy
# ranef(bayesian_mixed)
mixedup::extract_random_effects(bayesian_mixed)

# A tibble: 400 x 7
   group_var effect    group  value    se lower_2.5 upper_97.5
   <chr>     <chr>     <chr>  <dbl> <dbl>     <dbl>      <dbl>
 1 student   Intercept 1     -0.202 0.113    -0.432      0.015
 2 student   Intercept 2     -0.209 0.114    -0.432      0.016
 3 student   Intercept 3     -0.007 0.114    -0.225      0.215
 4 student   Intercept 4     -0.095 0.115    -0.31       0.132
 5 student   Intercept 5      0.087 0.111    -0.131      0.298
 6 student   Intercept 6     -0.204 0.114    -0.428      0.013
 7 student   Intercept 7     -0.154 0.115    -0.374      0.07 
 8 student   Intercept 8      0.151 0.112    -0.07       0.37 
 9 student   Intercept 9      0.038 0.113    -0.179      0.259
10 student   Intercept 10     0.098 0.114    -0.126      0.321
# … with 390 more rows
…
